158292 412591 449
951676 443515 525
846806 530300 525
162127 763979 509
305335 708837 509
769688 276266 509
999200 865340 507
951156 430779 525
965215 831909 525
36709 428619 449
300855 868377 525
958081 608566 525
916120 28741 525
101993 124850 354
144467 624464 470
481410 37666 449
146651 474668 449
280224 780949 509
695317 692211 367
72896 344518 443
449356 123108 449
732248 952218 525
837556 20704 509
330134 808969 509
957720 697742 525
813763 194946 509
976557 782561 525
396136 604176 470
823207 839245 525
39993 380512 443
751961 666766 504
253711 515586 470
893328 241764 525
762302 607411 509
989349 38490 525
563668 777494 509
156211 39224 383
797939 731550 468
68025 320382 443
993025 712703 525
480076 54214 449
963943 169393 525
698324 578596 509
129182 379745 443
334913 322486 384
55042 967409 525
610145 686434 509
573593 711452 509
766848 557046 509
718716 757214 424
930717 182189 525
724006 75643 509
496551 678754 509
117720 503270 449
445535 171040 449
876042 953079 507
797316 864381 525
474749 161436 449
278469 969716 525
664915 108458 509
985315 989540 396
275609 640326 509
113664 815472 509
796761 567057 509
665555 390906 509
219050 303065 443
931567 158463 525
525757 270215 470
94894 68637 351
602190 106617 470
953721 513750 525
97159 101591 341
885094 57146 525
691995 190843 509
518071 646483 509
84808 251799 443
253870 541755 470
500612 153291 449
535011 775054 509
646387 486313 509
200444 124795 383
283197 486081 449
583046 231589 470
94897 301199 443
353489 269173 441
992416 968444 458
771688 309110 509
437495 550961 470
607361 905378 525
959507 217264 525
330005 445589 449
234203 819755 509
691263 541347 509
586745 574690 434
585433 870054 525
341276 507528 449
971730 494290 525
932824 31592 525
444284 492213 444
763801 788281 468
994790 403288 525
668768 747207 504
469182 453887 444
307425 205260 443
76098 506834 449
832949 971984 525
416274 388906 449
636896 130852 509
171026 853271 525
314582 946148 525
358054 232258 441
633732 974033 525
237112 724103 509
690354 434273 509
1093 751405 509
847169 537470 525
823997 268787 509
683085 442083 509
862238 158163 525
785137 334602 509
170703 122140 383
579587 801720 509
28551 2720 308
473401 920362 525
361502 611700 470
117847 846932 525
481279 8301 449
271805 529588 470
489975 548660 470
736628 894397 525
268736 167029 443
719844 933446 525
678302 144098 509
366619 338459 441
591715 631489 509
368954 47276 443
373678 48596 443
2976 457147 449
241052 423474 449
461531 848839 525
233739 723415 509
278925 592830 470
787714 259564 509
420179 957325 525
209162 527203 470
270902 752937 509
142422 487026 449
720247 616003 509
742460 440266 509
667482 73280 509
213202 959398 525
234145 435682 449
460683 135089 449
975977 157640 525
308699 462171 449
298605 512064 470
88470 977024 525
482023 853391 525
482195 894529 525
102546 187663 383
523287 578746 452
980406 57240 525
550928 549273 346
388403 528757 470
552134 543416 452
921435 234565 525
559331 661123 509
702350 628720 442
148260 44050 375
690576 267169 509
32500 342349 443
608224 300006 470
49350 509650 449
536216 196073 470
13153 608450 470
481897 819737 509
797154 697568 504
219891 367423 443
877582 362906 525
588803 885166 525
402215 236780 441
866484 405145 525
458140 3549 449
700928 10882 509
720627 634132 504
76210 813454 509
176634 683875 509
196495 815003 509
424452 691670 509
823683 112161 509
276798 192692 443
679240 127262 509
157263 711742 509
179910 975365 525
367466 252204 441
381622 655821 509
239779 655657 509
846098 247991 525
160337 520974 470
551182 805147 509
854280 400733 525
759776 985547 525
185430 339277 443
730837 1405 509
34292 537430 470
982414 111936 525
668051 413348 509
900117 616698 525
543867 593943 452
684702 454555 509
9093 680078 509
179758 818970 509
654649 973486 525
20979 159881 383
318318 857659 525
97903 59626 351
17070 871526 525
144643 677293 509
82432 594141 470
355041 730428 509
543189 368060 470
430267 806562 509
789508 986815 525
56231 951054 525
24502 580730 470
402482 477438 449
383199 688568 509
45977 737925 509
970920 109683 525
523465 720261 509
265460 145081 443
735617 684063 504
807033 540405 509
62612 130297 354
998164 650565 525
56056 566070 470
183086 444132 449
131850 59834 354
769455 492560 509
486499 341730 449
263923 192473 443
452753 57814 449
849521 302688 525
726246 654867 504
359768 672208 509
754138 636650 504
843019 907724 445
802009 182716 509
772229 599761 509
849079 679160 525
